{
	"pages": [ //pages数组中第一项表示应用启动页，参考：https://uniapp.dcloud.io/collocation/pages
		{
			"path": "pages/index/index",
			"style": {
				"navigationBarTitleText": "首页"
			}
		},
		{
			"path": "pages/classify/index",
			"style": {
				"navigationBarTitleText": "分类"
			}
		},
		{
			"path": "pages/note/index",
			"style": {
				"navigationBarTitleText": "笔记"
			}
		},
		{
			"path": "pages/mine/index",
			"style": {
				"navigationBarTitleText": "个人中心"
			}
		},
		{
			"path": "pages/login/index",
			"style": {
				"navigationBarTitleText": "用户登录"
			}
		}
	],
	"tabBar": {
		"list": [
			{
				"text": "首页",
				"pagePath": "pages/index/index"
			},
			{
				"text": "分类",
				"pagePath": "pages/classify/index"
			},
			{
				"text": "笔记",
				"pagePath": "pages/note/index"
			},
			{
				"text": "我的",
				"pagePath": "pages/mine/index"
			}
		],
		"color": "#000",
		"backgroundColor": "#fff",
		"selectedColor": "#55ff7f"
	},
	"globalStyle": {
		"navigationBarTextStyle": "black",
		// "navigationBarTitleText": "uni-app",
		"navigationBarBackgroundColor": "#F8F8F8",
		"backgroundColor": "#F8F8F8"
	},
	"uniIdRouter": {}
}
